<?xml version="1.0" encoding="utf-8"?>
<!-- Generator: Adobe Illustrator 19.2.0, SVG Export Plug-In . SVG Version: 6.00 Build 0)  -->
<svg version="1.1" xmlns="http://www.w3.org/2000/svg" xmlns:xlink="http://www.w3.org/1999/xlink" x="0px" y="0px" width="24.2px"
	 height="44px" viewBox="0 0 24.2 44" style="enable-background:new 0 0 24.2 44;" xml:space="preserve">
<style type="text/css">
	.st0{display:none;}
	.st1{display:inline;fill:#464646;}
	.st2{display:inline;}
	.st3{fill:#464646;}
</style>
<g id="Capa_1" class="st0">
	<path class="st1" d="M6.2,16.4c0-3.3,2.6-5.9,5.9-5.9c3.3,0,5.9,2.6,5.9,5.9c0,3.3-2.6,5.9-5.9,5.9C8.8,22.3,6.2,19.6,6.2,16.4
		 M21.9,30.4l-0.8-2.6c-0.3-1.3-0.9-2.5-1.6-3.5c-0.4-0.6-1.2-1-2-1c-0.4,0-0.8,0.1-1.1,0.3c-1.3,0.7-2.7,1-4.3,1s-3.1-0.4-4.3-1
		c-0.3-0.2-0.7-0.3-1.1-0.3c-0.8,0-1.6,0.4-2,1c-0.7,1-1.2,2.2-1.6,3.5l-0.8,2.6C1.8,32,3,33.5,4.8,33.5h14.5
		C21.1,33.5,22.4,32,21.9,30.4"/>
</g>
<g id="Capa_2" class="st0">
	<g class="st2">
		<path class="st3" d="M23.5,15c0,0.7-0.2,1.3-0.6,1.9c-0.4,0.6-0.9,1.1-1.6,1.6c-3.2,2.2-5.2,3.6-6,4.2c-0.1,0.1-0.3,0.2-0.5,0.4
			c-0.3,0.2-0.5,0.4-0.7,0.5c-0.2,0.1-0.4,0.3-0.7,0.4s-0.5,0.3-0.7,0.3c-0.2,0.1-0.4,0.1-0.6,0.1h0h0c-0.2,0-0.4,0-0.6-0.1
			c-0.2-0.1-0.5-0.2-0.7-0.3s-0.5-0.3-0.7-0.4c-0.2-0.1-0.4-0.3-0.7-0.5c-0.3-0.2-0.5-0.3-0.5-0.4c-0.8-0.5-1.9-1.3-3.3-2.3
			c-1.5-1-2.3-1.6-2.6-1.8c-0.5-0.4-1-0.9-1.5-1.5s-0.7-1.2-0.7-1.7c0-0.7,0.2-1.2,0.5-1.7S2,13,2.7,13h18.8c0.6,0,1,0.2,1.4,0.6
			C23.3,14,23.5,14.5,23.5,15z M23.5,18.8V29c0,0.6-0.2,1-0.6,1.4C22.5,30.8,22,31,21.5,31H2.7c-0.6,0-1-0.2-1.4-0.6
			C0.8,30,0.6,29.5,0.6,29V18.8c0.4,0.4,0.8,0.8,1.3,1.1C5,22,7.1,23.5,8.3,24.3c0.5,0.4,0.9,0.6,1.2,0.8c0.3,0.2,0.7,0.4,1.2,0.6
			c0.5,0.2,1,0.3,1.4,0.3h0h0c0.4,0,0.9-0.1,1.4-0.3c0.5-0.2,0.9-0.4,1.2-0.6c0.3-0.2,0.7-0.5,1.2-0.8c1.4-1,3.6-2.5,6.4-4.4
			C22.7,19.6,23.2,19.2,23.5,18.8z"/>
	</g>
</g>
<g id="Capa_3" class="st0">
	<path class="st1" d="M20.1,19.4L20.1,19.4L20,18.5c0-4.4-3.6-8-8-8c-4.4,0-8,3.6-8,8v0.9H4c-0.5,0-1,0.4-1,1v12.2c0,0.5,0.4,1,1,1
		h16.1c0.5,0,1-0.4,1-1V20.3C21.1,19.8,20.7,19.4,20.1,19.4z M13.1,31.2h-1.9v-1.9h1.9V31.2z M15.3,25.2c-0.2,0.4-0.7,0.9-1.5,1.5
		c-0.4,0.3-0.6,0.6-0.7,0.8c-0.1,0.2-0.1,0.6-0.1,1.1h-1.7c0-0.2,0-0.4,0-0.5c0-0.6,0.1-1,0.3-1.4s0.6-0.8,1.1-1.2s0.9-0.7,1-0.9
		c0.2-0.2,0.2-0.5,0.2-0.7c0-0.4-0.1-0.7-0.4-0.9c-0.3-0.3-0.7-0.4-1.2-0.4c-0.5,0-0.9,0.1-1.2,0.4c-0.3,0.3-0.5,0.7-0.7,1.3
		l-1.7-0.2c0-0.8,0.4-1.5,1-2s1.5-0.8,2.5-0.8c1.1,0,2,0.3,2.6,0.9c0.6,0.6,1,1.2,1,2C15.6,24.5,15.5,24.9,15.3,25.2z M17.3,19.4
		H6.9v-0.9c0-2.9,2.3-5.2,5.2-5.2c2.9,0,5.2,2.3,5.2,5.2V19.4z"/>
</g>
<g id="Capa_4">
	<path class="st3" d="M20.1,19.4L20.1,19.4L20,18.5c0-4.4-3.6-8-8-8s-8,3.6-8,8v0.9H4c-0.5,0-1,0.4-1,1v12.2c0,0.5,0.4,1,1,1h16.1
		c0.5,0,1-0.4,1-1V20.3C21.1,19.8,20.7,19.4,20.1,19.4 M6.9,18.5c0-2.9,2.3-5.2,5.2-5.2s5.2,2.3,5.2,5.2v0.9H6.9V18.5z M13.3,26.8v3
		c0,0.7-0.6,1.3-1.3,1.3c-0.7,0-1.3-0.6-1.3-1.3v-3c-0.8-0.4-1.3-1.3-1.3-2.3c0-1.4,1.2-2.6,2.6-2.6c1.4,0,2.6,1.2,2.6,2.6
		C14.7,25.5,14.1,26.3,13.3,26.8"/>
</g>
</svg>
